module gitlab.com/wenceslao1207/go-isi-utn/client

go 1.12

require (
	cloud.google.com/go v0.39.0 // indirect
	github.com/dgrijalva/jwt-go v3.2.0+incompatible
	github.com/golang/mock v1.3.1 // indirect
	github.com/google/btree v1.0.0 // indirect
	github.com/google/go-cmp v0.3.0 // indirect
	github.com/google/pprof v0.0.0-20190502144155-8358a9778bd1 // indirect
	github.com/gorilla/mux v1.7.1 // indirect
	github.com/hashicorp/golang-lru v0.5.1 // indirect
	golang.org/x/crypto v0.0.0-20190513172903-22d7a77e9e5f // indirect
	golang.org/x/exp v0.0.0-20190510132918-efd6b22b2522 // indirect
	golang.org/x/image v0.0.0-20190507092727-e4e5bf290fec // indirect
	golang.org/x/lint v0.0.0-20190409202823-959b441ac422 // indirect
	golang.org/x/mobile v0.0.0-20190509164839-32b2708ab171 // indirect
	golang.org/x/net v0.0.0-20190514140710-3ec191127204 // indirect
	golang.org/x/oauth2 v0.0.0-20190402181905-9f3314589c9a // indirect
	golang.org/x/sys v0.0.0-20190514135907-3a4b5fb9f71f // indirect
	golang.org/x/text v0.3.2 // indirect
	golang.org/x/time v0.0.0-20190308202827-9d24e82272b4 // indirect
	golang.org/x/tools v0.0.0-20190514171724-faff00d7e7f6 // indirect
	google.golang.org/appengine v1.6.0 // indirect
	google.golang.org/genproto v0.0.0-20190513181449-d00d292a067c // indirect
	google.golang.org/grpc v1.20.1 // indirect
	gopkg.in/mgo.v2 v2.0.0-20180705113604-9856a29383ce
	honnef.co/go/tools v0.0.0-20190418001031-e561f6794a2a // indirect
)
